Picking which samples to analyze
…
clean_meta$sample[!clean_meta$sample %in% abund$sample]

 [1] "T163054_S128" "T163052_S126" "T163034_S124" "T163032_S122" "T163014_S120"
 [6] "T163012_S118" "T162064_S116" "T153053_S103" "T153052_S102" "T153032_S98" 
[11] "T153014_S96"  "T143012_S70"  "T142064_S68"  "T142063_S67"  "T142062_S66" 
[16] "T142061_S65"  "T142023_S63"  "T141014_S60"  "T162062_S114" "T162024_S112"
[21] "T162022_S110" "T161014_S108" "T161012_S106" "T153054_S104" "T153012_S94" 
[26] "T152064_S92"  "T152062_S90"  "T152024_S88"  "T152022_S86"  "T151014_S84" 
[31] "T151012_S82"  "T143054_S80"  "T143052_S78"  "T143051_S77"  "T143034_S76" 
[36] "T143014_S72" 

clean_meta[!clean_meta$sample %in% abund$sample,]

# A tibble: 36 × 5
   Run         irrigation sample       Rotation season   
   <chr>       <chr>      <chr>        <chr>    <chr>    
 1 SRR18309617 N          T163054_S128 SBR      maturity 
 2 SRR18309618 Y          T163052_S126 SBR      maturity 
 3 SRR18309620 N          T163034_S124 SBR      maturity 
 4 SRR18309621 Y          T163032_S122 SBR      maturity 
 5 SRR18309622 N          T163014_S120 SBR      maturity 
 6 SRR18309623 Y          T163012_S118 SBR      maturity 
 7 SRR18309624 Y          T162064_S116 CR       maturity 
 8 SRR18309632 N          T153053_S103 SBR      flowering
 9 SRR18309633 Y          T153052_S102 SBR      flowering
10 SRR18309634 Y          T153032_S98  SBR      flowering
# ℹ 26 more rows
…
