Picking which samples to analyze
…
clean_abund_names[!clean_abund_names %in% clean_meta$`Sample Name`]

 [1] "M1NP_USI-S_noC" "M1P_LSI-S_noC"  "M2NP_LI-S_noC"  "M2NP_USI-S_noC"
 [5] "M3NP_USI-S_noC" "M3P_LI-S_noC"   "M4P_LSI-S_noC"  "M4P_USI-S_noC" 
 [9] "M5NP_USI-S_noC" "M6NP_USI-S_noC"

clean_meta[clean_meta$`Sample Name` %in% clean_abund_names,]

# A tibble: 93 × 7
   Run         Day   Dilution Host_diet host_genotype host_tissue_sampled       
   <chr>       <chr>    <dbl> <chr>     <chr>         <chr>                     
 1 SRR10217991 10           0 Control   Swiss Webster Cecum Contents            
 2 SRR10217992 10           0 Control   Swiss Webster Lower Small Intestine Con…
 3 SRR10217993 10           0 Control   Swiss Webster Upper Small Intestine Con…
 4 SRR10217994 10           0 Control   Swiss Webster Stomach Contents          
 5 SRR10217995 10           0 Control   Swiss Webster Large Intestine Mucosa    
 6 SRR10217996 10           0 Control   Swiss Webster Lower Small Intestine Muc…
 7 SRR10217997 10           0 Control   Swiss Webster Upper Small Intestine Muc…
 8 SRR10217998 10           0 Control   Swiss Webster Cecum Contents            
 9 SRR10217999 10           0 Control   Swiss Webster Lower Small Intestine Con…
10 SRR10218000 10           0 Control   Swiss Webster Upper Small Intestine Con…
# ℹ 83 more rows
# ℹ 1 more variable: `Sample Name` <chr>
…
[1] TRUE

all(clean_together$host_tissue_sampled == clean_together$Site)

[1] FALSE

all(clean_together$Host_diet == clean_together$Diet)

[1] FALSE

clean_together %>%
  filter(host_tissue_sampled != Site) %>%
  select(Site, host_tissue_sampled)

# A tibble: 36 × 2
   Site              host_tissue_sampled           
   <chr>             <chr>                         
 1 Lower SI Contents Lower Small Intestine Contents
 2 Upper SI Contents Upper Small Intestine Contents
 3 Colon Mucosa      Large Intestine Mucosa        
 4 Lower SI Mucosa   Lower Small Intestine Mucosa  
 5 Upper SI Mucosa   Upper Small Intestine Mucosa  
 6 Lower SI Contents Lower Small Intestine Contents
 7 Upper SI Contents Upper Small Intestine Contents
 8 Colon Mucosa      Large Intestine Mucosa        
 9 Lower SI Mucosa   Lower Small Intestine Mucosa  
10 Upper SI Mucosa   Upper Small Intestine Mucosa  
# ℹ 26 more rows

# Okay, they match, but host_tissue_sampled is more descriptive

clean_together %>%
  filter(Host_diet != Diet) %>%
  select(Host_diet, Diet)

# A tibble: 49 × 2
   Host_diet Diet 
   <chr>     <chr>
 1 Ketogenic Keto 
 2 Ketogenic Keto 
 3 Ketogenic Keto 
 4 Ketogenic Keto 
 5 Ketogenic Keto 
 6 Ketogenic Keto 
 7 Ketogenic Keto 
 8 Ketogenic Keto 
 9 Ketogenic Keto 
10 Ketogenic Keto 
# ℹ 39 more rows
…
